%YAML 1.1
%TAG !u! tag:unity3d.com,2011:
--- !u!74 &7400000
AnimationClip:
  m_ObjectHideFlags: 0
  m_PrefabParentObject: {fileID: 0}
  m_PrefabInternal: {fileID: 0}
  m_Name: TitleScreenButtonMoveIt
  serializedVersion: 6
  m_Legacy: 0
  m_Compressed: 0
  m_UseHighQualityCurve: 1
  m_RotationCurves:
  - curve:
      serializedVersion: 2
      m_Curve:
      - time: 0
        value: {x: 0, y: 0, z: .0116934413, w: .999931633}
        inSlope: {x: 0, y: 0, z: -.141363591, w: .00148773182}
        outSlope: {x: 0, y: 0, z: -.141363591, w: .00148773182}
        tangentMode: 0
      - time: .0166666675
        value: {x: 0, y: 0, z: .00933738146, w: .999956429}
        inSlope: {x: 0, y: 0, z: -.147066176, w: .00135898578}
        outSlope: {x: 0, y: 0, z: -.147066176, w: .00135898578}
        tangentMode: 0
      - time: .0333333351
        value: {x: 0, y: 0, z: .00679123495, w: .999976933}
        inSlope: {x: 0, y: 0, z: -.156027883, w: .00104963768}
        outSlope: {x: 0, y: 0, z: -.156027883, w: .00104963768}
        tangentMode: 0
      - time: .0500000045
        value: {x: 0, y: 0, z: .00413645105, w: .999991417}
        inSlope: {x: 0, y: 0, z: -.160102338, w: .000659823359}
        outSlope: {x: 0, y: 0, z: -.160102338, w: .000659823359}
        tangentMode: 0
      - time: .0666666701
        value: {x: 0, y: 0, z: .00145449035, w: .999998927}
        inSlope: {x: 0, y: 0, z: -.159289092, w: .000236034408}
        outSlope: {x: 0, y: 0, z: -.159289092, w: .000236034408}
        tangentMode: 0
      - time: .0833333358
        value: {x: 0, y: 0, z: -.00117318472, w: .999999285}
        inSlope: {x: 0, y: 0, z: -.153587997, w: -.000169873252}
        outSlope: {x: 0, y: 0, z: -.153587997, w: -.000169873252}
        tangentMode: 0
      - time: .100000001
        value: {x: 0, y: 0, z: -.0036651094, w: .999993265}
        inSlope: {x: 0, y: 0, z: -.142999291, w: -.000507831632}
        outSlope: {x: 0, y: 0, z: -.142999291, w: -.000507831632}
        tangentMode: 0
      - time: .116666667
        value: {x: 0, y: 0, z: -.0059398273, w: .999982357}
        inSlope: {x: 0, y: 0, z: -.127523422, w: -.000738501432}
        outSlope: {x: 0, y: 0, z: -.127523422, w: -.000738501432}
        tangentMode: 0
      - time: .13333334
        value: {x: 0, y: 0, z: -.00791589078, w: .999968648}
        inSlope: {x: 0, y: 0, z: -.107160993, w: -.0008279084}
        outSlope: {x: 0, y: 0, z: -.107160993, w: -.0008279084}
        tangentMode: 0
      - time: .150000006
        value: {x: 0, y: 0, z: -.00951186102, w: .99995476}
        inSlope: {x: 0, y: 0, z: -.0819125473, w: -.000759959279}
        outSlope: {x: 0, y: 0, z: -.0819125473, w: -.000759959279}
        tangentMode: 0
      - time: .166666672
        value: {x: 0, y: 0, z: -.0106463088, w: .999943316}
        inSlope: {x: 0, y: 0, z: -.0569351986, w: -.00059545046}
        outSlope: {x: 0, y: 0, z: -.0569351986, w: -.00059545046}
        tangentMode: 0
      - time: .183333337
        value: {x: 0, y: 0, z: -.0114097008, w: .999934912}
        inSlope: {x: 0, y: 0, z: -.0392442122, w: -.000443458615}
        outSlope: {x: 0, y: 0, z: -.0392442122, w: -.000443458615}
        tangentMode: 0
      - time: .200000003
        value: {x: 0, y: 0, z: -.0119544491, w: .999928534}
        inSlope: {x: 0, y: 0, z: -.0264701918, w: -.000314712554}
        outSlope: {x: 0, y: 0, z: -.0264701918, w: -.000314712554}
        tangentMode: 0
      - time: .216666669
        value: {x: 0, y: 0, z: -.0122920405, w: .999924421}
        inSlope: {x: 0, y: 0, z: -.0143853035, w: -.00017523767}
        outSlope: {x: 0, y: 0, z: -.0143853035, w: -.00017523767}
        tangentMode: 0
      - time: .233333334
        value: {x: 0, y: 0, z: -.0124339592, w: .999922693}
        inSlope: {x: 0, y: 0, z: -.00298949005, w: -3.57627869e-05}
        outSlope: {x: 0, y: 0, z: -.00298949005, w: -3.57627869e-05}
        tangentMode: 0
      - time: .25
        value: {x: 0, y: 0, z: -.0123916902, w: .999923229}
        inSlope: {x: 0, y: 0, z: .00771721266, w: 9.47713197e-05}
        outSlope: {x: 0, y: 0, z: .00771721266, w: 9.47713197e-05}
        tangentMode: 0
      - time: .266666681
        value: {x: 0, y: 0, z: -.0121767186, w: .999925852}
        inSlope: {x: 0, y: 0, z: .0177349467, w: .000214576547}
        outSlope: {x: 0, y: 0, z: .0177349467, w: .000214576547}
        tangentMode: 0
      - time: .283333361
        value: {x: 0, y: 0, z: -.0118005248, w: .999930382}
        inSlope: {x: 0, y: 0, z: .0270637739, w: .000318288541}
        outSlope: {x: 0, y: 0, z: .0270637739, w: .000318288541}
        tangentMode: 0
      - time: .300000042
        value: {x: 0, y: 0, z: -.011274592, w: .999936461}
        inSlope: {x: 0, y: 0, z: .0357037783, w: .000400542864}
        outSlope: {x: 0, y: 0, z: .0357037783, w: .000400542864}
        tangentMode: 0
      - time: .316666722
        value: {x: 0, y: 0, z: -.0106103979, w: .999943733}
        inSlope: {x: 0, y: 0, z: .0436548963, w: .000459551404}
        outSlope: {x: 0, y: 0, z: .0436548963, w: .000459551404}
        tangentMode: 0
      - time: .333333403
        value: {x: 0, y: 0, z: -.00981942751, w: .99995178}
        inSlope: {x: 0, y: 0, z: .0509171113, w: .00049710233}
        outSlope: {x: 0, y: 0, z: .0509171113, w: .00049710233}
        tangentMode: 0
      - time: .350000083
        value: {x: 0, y: 0, z: -.00891315937, w: .999960303}
        inSlope: {x: 0, y: 0, z: .0574904457, w: .000509619305}
        outSlope: {x: 0, y: 0, z: .0574904457, w: .000509619305}
        tangentMode: 0
      - time: .366666764
        value: {x: 0, y: 0, z: -.00790307764, w: .999968767}
        inSlope: {x: 0, y: 0, z: .0633748472, w: .00049710233}
        outSlope: {x: 0, y: 0, z: .0633748472, w: .00049710233}
        tangentMode: 0
      - time: .383333445
        value: {x: 0, y: 0, z: -.00680066273, w: .999976873}
        inSlope: {x: 0, y: 0, z: .0685703233, w: .000463127682}
        outSlope: {x: 0, y: 0, z: .0685703233, w: .000463127682}
        tangentMode: 0
      - time: .400000125
        value: {x: 0, y: 0, z: -.0056173983, w: .999984205}
        inSlope: {x: 0, y: 0, z: .0730766281, w: .000407695421}
        outSlope: {x: 0, y: 0, z: .0730766281, w: .000407695421}
        tangentMode: 0
      - time: .416666806
        value: {x: 0, y: 0, z: -.00436477317, w: .999990463}
        inSlope: {x: 0, y: 0, z: .0768940225, w: .000334381766}
        outSlope: {x: 0, y: 0, z: .0768940225, w: .000334381766}
        tangentMode: 0
      - time: .433333486
        value: {x: 0, y: 0, z: -.00305426214, w: .999995351}
        inSlope: {x: 0, y: 0, z: .0800223053, w: .000243186747}
        outSlope: {x: 0, y: 0, z: .0800223053, w: .000243186747}
        tangentMode: 0
      - time: .450000167
        value: {x: 0, y: 0, z: -.00169736089, w: .999998569}
        inSlope: {x: 0, y: 0, z: .0824613273, w: .000137686613}
        outSlope: {x: 0, y: 0, z: .0824613273, w: .000137686613}
        tangentMode: 0
      - time: .466666847
        value: {x: 0, y: 0, z: -.000305548863, w: .99999994}
        inSlope: {x: 0, y: 0, z: .0842110217, w: 2.50339308e-05}
        outSlope: {x: 0, y: 0, z: .0842110217, w: 2.50339308e-05}
        tangentMode: 0
      - time: .483333528
        value: {x: 0, y: 0, z: .00110967562, w: .999999404}
        inSlope: {x: 0, y: 0, z: .0852715671, w: -9.47714434e-05}
        outSlope: {x: 0, y: 0, z: .0852715671, w: -9.47714434e-05}
        tangentMode: 0
      - time: .500000179
        value: {x: 0, y: 0, z: .00253683631, w: .999996781}
        inSlope: {x: 0, y: 0, z: .0856431574, w: -.000218153204}
        outSlope: {x: 0, y: 0, z: .0856431574, w: -.000218153204}
        tangentMode: 0
      - time: .51666683
        value: {x: 0, y: 0, z: .00396444462, w: .999992132}
        inSlope: {x: 0, y: 0, z: .0853252932, w: -.000337958656}
        outSlope: {x: 0, y: 0, z: .0853252932, w: -.000337958656}
        tangentMode: 0
      - time: .53333348
        value: {x: 0, y: 0, z: .00538101001, w: .999985516}
        inSlope: {x: 0, y: 0, z: .0843181983, w: -.000452399661}
        outSlope: {x: 0, y: 0, z: .0843181983, w: -.000452399661}
        tangentMode: 0
      - time: .550000131
        value: {x: 0, y: 0, z: .00677504856, w: .999977052}
        inSlope: {x: 0, y: 0, z: .082621932, w: -.000557899999}
        outSlope: {x: 0, y: 0, z: .082621932, w: -.000557899999}
        tangentMode: 0
      - time: .566666782
        value: {x: 0, y: 0, z: .00813507196, w: .999966919}
        inSlope: {x: 0, y: 0, z: .0802365094, w: -.000650883303}
        outSlope: {x: 0, y: 0, z: .0802365094, w: -.000650883303}
        tangentMode: 0
      - time: .583333433
        value: {x: 0, y: 0, z: .00944959652, w: .999955356}
        inSlope: {x: 0, y: 0, z: .0771620274, w: -.000727773411}
        outSlope: {x: 0, y: 0, z: .0771620274, w: -.000727773411}
        tangentMode: 0
      - time: .600000083
        value: {x: 0, y: 0, z: .0107071372, w: .99994266}
        inSlope: {x: 0, y: 0, z: .0733985305, w: -.000783205731}
        outSlope: {x: 0, y: 0, z: .0733985305, w: -.000783205731}
        tangentMode: 0
      - time: .616666734
        value: {x: 0, y: 0, z: .0118962117, w: .999929249}
        inSlope: {x: 0, y: 0, z: .0689460263, w: -.000817180495}
        outSlope: {x: 0, y: 0, z: .0689460263, w: -.000817180495}
        tangentMode: 0
      - time: .633333385
        value: {x: 0, y: 0, z: .0130053358, w: .999915421}
        inSlope: {x: 0, y: 0, z: .0638047308, w: -.000827909331}
        outSlope: {x: 0, y: 0, z: .0638047308, w: -.000827909331}
        tangentMode: 0
      - time: .650000036
        value: {x: 0, y: 0, z: .0140230339, w: .999901652}
        inSlope: {x: 0, y: 0, z: .057974495, w: -.000810027937}
        outSlope: {x: 0, y: 0, z: .057974495, w: -.000810027937}
        tangentMode: 0
      - time: .666666687
        value: {x: 0, y: 0, z: .0149378171, w: .99988842}
        inSlope: {x: 0, y: 0, z: .0514553227, w: -.000765324337}
        outSlope: {x: 0, y: 0, z: .0514553227, w: -.000765324337}
        tangentMode: 0
      - time: .683333337
        value: {x: 0, y: 0, z: .0157382097, w: .999876142}
        inSlope: {x: 0, y: 0, z: .0442476347, w: -.000693798764}
        outSlope: {x: 0, y: 0, z: .0442476347, w: -.000693798764}
        tangentMode: 0
      - time: .699999988
        value: {x: 0, y: 0, z: .0164127368, w: .999865294}
        inSlope: {x: 0, y: 0, z: .0363511741, w: -.000593662844}
        outSlope: {x: 0, y: 0, z: .0363511741, w: -.000593662844}
        tangentMode: 0
      - time: .716666639
        value: {x: 0, y: 0, z: .0169499144, w: .999856353}
        inSlope: {x: 0, y: 0, z: .0277657509, w: -.000468492974}
        outSlope: {x: 0, y: 0, z: .0277657509, w: -.000468492974}
        tangentMode: 0
      - time: .73333329
        value: {x: 0, y: 0, z: .017338261, w: .999849677}
        inSlope: {x: 0, y: 0, z: .0184917264, w: -.000320077233}
        outSlope: {x: 0, y: 0, z: .0184917264, w: -.000320077233}
        tangentMode: 0
      - time: .74999994
        value: {x: 0, y: 0, z: .0175663047, w: .999845684}
        inSlope: {x: 0, y: 0, z: .00852893014, w: -.000148415711}
        outSlope: {x: 0, y: 0, z: .00852893014, w: -.000148415711}
        tangentMode: 0
      - time: .766666591
        value: {x: 0, y: 0, z: .0176225584, w: .99984473}
        inSlope: {x: 0, y: 0, z: -.00212274701, w: 3.75509626e-05}
        outSlope: {x: 0, y: 0, z: -.00212274701, w: 3.75509626e-05}
        tangentMode: 0
      - time: .783333242
        value: {x: 0, y: 0, z: .0174955465, w: .999846935}
        inSlope: {x: 0, y: 0, z: -.0134634729, w: .000234246487}
        outSlope: {x: 0, y: 0, z: -.0134634729, w: .000234246487}
        tangentMode: 0
      - time: .799999893
        value: {x: 0, y: 0, z: .0171737764, w: .999852538}
        inSlope: {x: 0, y: 0, z: -.0254933033, w: .000436306407}
        outSlope: {x: 0, y: 0, z: -.0254933033, w: .000436306407}
        tangentMode: 0
      - time: .816666543
        value: {x: 0, y: 0, z: .0166457705, w: .999861479}
        inSlope: {x: 0, y: 0, z: -.0382123515, w: .00063121377}
        outSlope: {x: 0, y: 0, z: -.0382123515, w: .00063121377}
        tangentMode: 0
      - time: .833333194
        value: {x: 0, y: 0, z: .0159000326, w: .999873579}
        inSlope: {x: 0, y: 0, z: -.0516205877, w: .000813604216}
        outSlope: {x: 0, y: 0, z: -.0516205877, w: .000813604216}
        tangentMode: 0
      - time: .849999845
        value: {x: 0, y: 0, z: .0149250859, w: .999888599}
        inSlope: {x: 0, y: 0, z: -.0657187104, w: .000972748734}
        outSlope: {x: 0, y: 0, z: -.0657187104, w: .000972748734}
        tangentMode: 0
      - time: .866666496
        value: {x: 0, y: 0, z: .013709411, w: .999906003}
        inSlope: {x: 0, y: 0, z: -.0805063248, w: .00109434233}
        outSlope: {x: 0, y: 0, z: -.0805063248, w: .00109434233}
        tangentMode: 0
      - time: .883333147
        value: {x: 0, y: 0, z: .0122415442, w: .999925077}
        inSlope: {x: 0, y: 0, z: -.0959836096, w: .00116228533}
        outSlope: {x: 0, y: 0, z: -.0959836096, w: .00116228533}
        tangentMode: 0
      - time: .899999976
        value: {x: 0, y: 0, z: .0105099417, w: .999944746}
        inSlope: {x: 0, y: 0, z: -.103895135, w: .00118016044}
        outSlope: {x: 0, y: 0, z: -.103895135, w: .00118016044}
        tangentMode: 0
      m_PreInfinity: 2
      m_PostInfinity: 2
    path: 
  m_CompressedRotationCurves: []
  m_PositionCurves: []
  m_ScaleCurves:
  - curve:
      serializedVersion: 2
      m_Curve:
      - time: 0
        value: {x: 1, y: 1, z: 1}
        inSlope: {x: 0, y: .5400002, z: 0}
        outSlope: {x: 0, y: .5400002, z: 0}
        tangentMode: 0
      - time: .166666672
        value: {x: 1, y: 1.09000003, z: 1}
        inSlope: {x: -.000612031377, y: .2700001, z: -.118517064}
        outSlope: {x: -.000612031377, y: .2700001, z: -.118517064}
        tangentMode: 0
      - time: .533333361
        value: {x: .999607205, y: 1.09208059, z: .913087487}
        inSlope: {x: -.00137710059, y: -.125218734, z: 1.49011612e-08}
        outSlope: {x: -.00137710059, y: -.125218734, z: 1.49011612e-08}
        tangentMode: 0
      - time: .550000012
        value: {x: .999584198, y: 1.09000003, z: .913438439}
        inSlope: {x: -.00139003457, y: -.124160744, z: .0416278914}
        outSlope: {x: -.00139003457, y: -.124160744, z: .0416278914}
        tangentMode: 0
      - time: .899999976
        value: {x: .999102354, y: 1.00308752, z: 1}
        inSlope: {x: -.00122406275, y: .786688507, z: .237034157}
        outSlope: {x: -.00122406275, y: .786688507, z: .237034157}
        tangentMode: 0
      m_PreInfinity: 2
      m_PostInfinity: 2
    path: 
  m_FloatCurves: []
  m_PPtrCurves: []
  m_SampleRate: 60
  m_WrapMode: 0
  m_Bounds:
    m_Center: {x: 0, y: 0, z: 0}
    m_Extent: {x: 0, y: 0, z: 0}
  m_ClipBindingConstant:
    genericBindings:
    - path: 0
      attribute: 2
      script: {fileID: 0}
      classID: 4
      customType: 0
      isPPtrCurve: 0
    - path: 0
      attribute: 3
      script: {fileID: 0}
      classID: 4
      customType: 0
      isPPtrCurve: 0
    pptrCurveMapping: []
  m_AnimationClipSettings:
    serializedVersion: 2
    m_StartTime: 0
    m_StopTime: .899999976
    m_OrientationOffsetY: 0
    m_Level: 0
    m_CycleOffset: 0
    m_LoopTime: 1
    m_LoopBlend: 0
    m_LoopBlendOrientation: 0
    m_LoopBlendPositionY: 0
    m_LoopBlendPositionXZ: 0
    m_KeepOriginalOrientation: 0
    m_KeepOriginalPositionY: 1
    m_KeepOriginalPositionXZ: 0
    m_HeightFromFeet: 0
    m_Mirror: 0
  m_EditorCurves:
  - curve:
      serializedVersion: 2
      m_Curve:
      - time: 0
        value: 1
        inSlope: 0
        outSlope: 0
        tangentMode: 10
      - time: .166666672
        value: 1
        inSlope: -.000612031377
        outSlope: -.000612031377
        tangentMode: 10
      - time: .899999976
        value: .999102354
        inSlope: -.00122406275
        outSlope: -.00122406275
        tangentMode: 10
      m_PreInfinity: 2
      m_PostInfinity: 2
    attribute: m_LocalScale.x
    path: 
    classID: 224
    script: {fileID: 0}
  - curve:
      serializedVersion: 2
      m_Curve:
      - time: 0
        value: 1
        inSlope: .5400002
        outSlope: .5400002
        tangentMode: 10
      - time: .166666672
        value: 1.09000003
        inSlope: .2700001
        outSlope: .2700001
        tangentMode: 10
      - time: .550000012
        value: 1.09000003
        inSlope: -.124160744
        outSlope: -.124160744
        tangentMode: 10
      - time: .899999976
        value: 1.00308752
        inSlope: .786688507
        outSlope: .786688507
        tangentMode: 0
      m_PreInfinity: 2
      m_PostInfinity: 2
    attribute: m_LocalScale.y
    path: 
    classID: 224
    script: {fileID: 0}
  - curve:
      serializedVersion: 2
      m_Curve:
      - time: 0
        value: 1
        inSlope: 0
        outSlope: 0
        tangentMode: 10
      - time: .166666672
        value: 1
        inSlope: -.118517064
        outSlope: -.118517064
        tangentMode: 10
      - time: .533333361
        value: .913087487
        inSlope: 1.49011612e-08
        outSlope: 1.49011612e-08
        tangentMode: 10
      - time: .899999976
        value: 1
        inSlope: .237034157
        outSlope: .237034157
        tangentMode: 10
      m_PreInfinity: 2
      m_PostInfinity: 2
    attribute: m_LocalScale.z
    path: 
    classID: 224
    script: {fileID: 0}
  - curve:
      serializedVersion: 2
      m_Curve:
      - time: 0
        value: 0
        inSlope: 0
        outSlope: 0
        tangentMode: 0
      - time: .0166666675
        value: 0
        inSlope: 0
        outSlope: 0
        tangentMode: 0
      - time: .0333333351
        value: 0
        inSlope: 0
        outSlope: 0
        tangentMode: 0
      - time: .0500000045
        value: 0
        inSlope: 0
        outSlope: 0
        tangentMode: 0
      - time: .0666666701
        value: 0
        inSlope: 0
        outSlope: 0
        tangentMode: 0
      - time: .0833333358
        value: 0
        inSlope: 0
        outSlope: 0
        tangentMode: 0
      - time: .100000001
        value: 0
        inSlope: 0
        outSlope: 0
        tangentMode: 0
      - time: .116666667
        value: 0
        inSlope: 0
        outSlope: 0
        tangentMode: 0
      - time: .13333334
        value: 0
        inSlope: 0
        outSlope: 0
        tangentMode: 0
      - time: .150000006
        value: 0
        inSlope: 0
        outSlope: 0
        tangentMode: 0
      - time: .166666672
        value: 0
        inSlope: 0
        outSlope: 0
        tangentMode: 0
      - time: .183333337
        value: 0
        inSlope: 0
        outSlope: 0
        tangentMode: 0
      - time: .200000003
        value: 0
        inSlope: 0
        outSlope: 0
        tangentMode: 0
      - time: .216666669
        value: 0
        inSlope: 0
        outSlope: 0
        tangentMode: 0
      - time: .233333334
        value: 0
        inSlope: 0
        outSlope: 0
        tangentMode: 0
      - time: .25
        value: 0
        inSlope: 0
        outSlope: 0
        tangentMode: 0
      - time: .266666681
        value: 0
        inSlope: 0
        outSlope: 0
        tangentMode: 0
      - time: .283333361
        value: 0
        inSlope: 0
        outSlope: 0
        tangentMode: 0
      - time: .300000042
        value: 0
        inSlope: 0
        outSlope: 0
        tangentMode: 0
      - time: .316666722
        value: 0
        inSlope: 0
        outSlope: 0
        tangentMode: 0
      - time: .333333403
        value: 0
        inSlope: 0
        outSlope: 0
        tangentMode: 0
      - time: .350000083
        value: 0
        inSlope: 0
        outSlope: 0
        tangentMode: 0
      - time: .366666764
        value: 0
        inSlope: 0
        outSlope: 0
        tangentMode: 0
      - time: .383333445
        value: 0
        inSlope: 0
        outSlope: 0
        tangentMode: 0
      - time: .400000125
        value: 0
        inSlope: 0
        outSlope: 0
        tangentMode: 0
      - time: .416666806
        value: 0
        inSlope: 0
        outSlope: 0
        tangentMode: 0
      - time: .433333486
        value: 0
        inSlope: 0
        outSlope: 0
        tangentMode: 0
      - time: .450000167
        value: 0
        inSlope: 0
        outSlope: 0
        tangentMode: 0
      - time: .466666847
        value: 0
        inSlope: 0
        outSlope: 0
        tangentMode: 0
      - time: .483333528
        value: 0
        inSlope: 0
        outSlope: 0
        tangentMode: 0
      - time: .500000179
        value: 0
        inSlope: 0
        outSlope: 0
        tangentMode: 0
      - time: .51666683
        value: 0
        inSlope: 0
        outSlope: 0
        tangentMode: 0
      - time: .53333348
        value: 0
        inSlope: 0
        outSlope: 0
        tangentMode: 0
      - time: .550000131
        value: 0
        inSlope: 0
        outSlope: 0
        tangentMode: 0
      - time: .566666782
        value: 0
        inSlope: 0
        outSlope: 0
        tangentMode: 0
      - time: .583333433
        value: 0
        inSlope: 0
        outSlope: 0
        tangentMode: 0
      - time: .600000083
        value: 0
        inSlope: 0
        outSlope: 0
        tangentMode: 0
      - time: .616666734
        value: 0
        inSlope: 0
        outSlope: 0
        tangentMode: 0
      - time: .633333385
        value: 0
        inSlope: 0
        outSlope: 0
        tangentMode: 0
      - time: .650000036
        value: 0
        inSlope: 0
        outSlope: 0
        tangentMode: 0
      - time: .666666687
        value: 0
        inSlope: 0
        outSlope: 0
        tangentMode: 0
      - time: .683333337
        value: 0
        inSlope: 0
        outSlope: 0
        tangentMode: 0
      - time: .699999988
        value: 0
        inSlope: 0
        outSlope: 0
        tangentMode: 0
      - time: .716666639
        value: 0
        inSlope: 0
        outSlope: 0
        tangentMode: 0
      - time: .73333329
        value: 0
        inSlope: 0
        outSlope: 0
        tangentMode: 0
      - time: .74999994
        value: 0
        inSlope: 0
        outSlope: 0
        tangentMode: 0
      - time: .766666591
        value: 0
        inSlope: 0
        outSlope: 0
        tangentMode: 0
      - time: .783333242
        value: 0
        inSlope: 0
        outSlope: 0
        tangentMode: 0
      - time: .799999893
        value: 0
        inSlope: 0
        outSlope: 0
        tangentMode: 0
      - time: .816666543
        value: 0
        inSlope: 0
        outSlope: 0
        tangentMode: 0
      - time: .833333194
        value: 0
        inSlope: 0
        outSlope: 0
        tangentMode: 0
      - time: .849999845
        value: 0
        inSlope: 0
        outSlope: 0
        tangentMode: 0
      - time: .866666496
        value: 0
        inSlope: 0
        outSlope: 0
        tangentMode: 0
      - time: .883333147
        value: 0
        inSlope: 0
        outSlope: 0
        tangentMode: 0
      - time: .899999976
        value: 0
        inSlope: 0
        outSlope: 0
        tangentMode: 0
      m_PreInfinity: 2
      m_PostInfinity: 2
    attribute: m_LocalRotation.x
    path: 
    classID: 224
    script: {fileID: 0}
  - curve:
      serializedVersion: 2
      m_Curve:
      - time: 0
        value: 0
        inSlope: 0
        outSlope: 0
        tangentMode: 0
      - time: .0166666675
        value: 0
        inSlope: 0
        outSlope: 0
        tangentMode: 0
      - time: .0333333351
        value: 0
        inSlope: 0
        outSlope: 0
        tangentMode: 0
      - time: .0500000045
        value: 0
        inSlope: 0
        outSlope: 0
        tangentMode: 0
      - time: .0666666701
        value: 0
        inSlope: 0
        outSlope: 0
        tangentMode: 0
      - time: .0833333358
        value: 0
        inSlope: 0
        outSlope: 0
        tangentMode: 0
      - time: .100000001
        value: 0
        inSlope: 0
        outSlope: 0
        tangentMode: 0
      - time: .116666667
        value: 0
        inSlope: 0
        outSlope: 0
        tangentMode: 0
      - time: .13333334
        value: 0
        inSlope: 0
        outSlope: 0
        tangentMode: 0
      - time: .150000006
        value: 0
        inSlope: 0
        outSlope: 0
        tangentMode: 0
      - time: .166666672
        value: 0
        inSlope: 0
        outSlope: 0
        tangentMode: 0
      - time: .183333337
        value: 0
        inSlope: 0
        outSlope: 0
        tangentMode: 0
      - time: .200000003
        value: 0
        inSlope: 0
        outSlope: 0
        tangentMode: 0
      - time: .216666669
        value: 0
        inSlope: 0
        outSlope: 0
        tangentMode: 0
      - time: .233333334
        value: 0
        inSlope: 0
        outSlope: 0
        tangentMode: 0
      - time: .25
        value: 0
        inSlope: 0
        outSlope: 0
        tangentMode: 0
      - time: .266666681
        value: 0
        inSlope: 0
        outSlope: 0
        tangentMode: 0
      - time: .283333361
        value: 0
        inSlope: 0
        outSlope: 0
        tangentMode: 0
      - time: .300000042
        value: 0
        inSlope: 0
        outSlope: 0
        tangentMode: 0
      - time: .316666722
        value: 0
        inSlope: 0
        outSlope: 0
        tangentMode: 0
      - time: .333333403
        value: 0
        inSlope: 0
        outSlope: 0
        tangentMode: 0
      - time: .350000083
        value: 0
        inSlope: 0
        outSlope: 0
        tangentMode: 0
      - time: .366666764
        value: 0
        inSlope: 0
        outSlope: 0
        tangentMode: 0
      - time: .383333445
        value: 0
        inSlope: 0
        outSlope: 0
        tangentMode: 0
      - time: .400000125
        value: 0
        inSlope: 0
        outSlope: 0
        tangentMode: 0
      - time: .416666806
        value: 0
        inSlope: 0
        outSlope: 0
        tangentMode: 0
      - time: .433333486
        value: 0
        inSlope: 0
        outSlope: 0
        tangentMode: 0
      - time: .450000167
        value: 0
        inSlope: 0
        outSlope: 0
        tangentMode: 0
      - time: .466666847
        value: 0
        inSlope: 0
        outSlope: 0
        tangentMode: 0
      - time: .483333528
        value: 0
        inSlope: 0
        outSlope: 0
        tangentMode: 0
      - time: .500000179
        value: 0
        inSlope: 0
        outSlope: 0
        tangentMode: 0
      - time: .51666683
        value: 0
        inSlope: 0
        outSlope: 0
        tangentMode: 0
      - time: .53333348
        value: 0
        inSlope: 0
        outSlope: 0
        tangentMode: 0
      - time: .550000131
        value: 0
        inSlope: 0
        outSlope: 0
        tangentMode: 0
      - time: .566666782
        value: 0
        inSlope: 0
        outSlope: 0
        tangentMode: 0
      - time: .583333433
        value: 0
        inSlope: 0
        outSlope: 0
        tangentMode: 0
      - time: .600000083
        value: 0
        inSlope: 0
        outSlope: 0
        tangentMode: 0
      - time: .616666734
        value: 0
        inSlope: 0
        outSlope: 0
        tangentMode: 0
      - time: .633333385
        value: 0
        inSlope: 0
        outSlope: 0
        tangentMode: 0
      - time: .650000036
        value: 0
        inSlope: 0
        outSlope: 0
        tangentMode: 0
      - time: .666666687
        value: 0
        inSlope: 0
        outSlope: 0
        tangentMode: 0
      - time: .683333337
        value: 0
        inSlope: 0
        outSlope: 0
        tangentMode: 0
      - time: .699999988
        value: 0
        inSlope: 0
        outSlope: 0
        tangentMode: 0
      - time: .716666639
        value: 0
        inSlope: 0
        outSlope: 0
        tangentMode: 0
      - time: .73333329
        value: 0
        inSlope: 0
        outSlope: 0
        tangentMode: 0
      - time: .74999994
        value: 0
        inSlope: 0
        outSlope: 0
        tangentMode: 0
      - time: .766666591
        value: 0
        inSlope: 0
        outSlope: 0
        tangentMode: 0
      - time: .783333242
        value: 0
        inSlope: 0
        outSlope: 0
        tangentMode: 0
      - time: .799999893
        value: 0
        inSlope: 0
        outSlope: 0
        tangentMode: 0
      - time: .816666543
        value: 0
        inSlope: 0
        outSlope: 0
        tangentMode: 0
      - time: .833333194
        value: 0
        inSlope: 0
        outSlope: 0
        tangentMode: 0
      - time: .849999845
        value: 0
        inSlope: 0
        outSlope: 0
        tangentMode: 0
      - time: .866666496
        value: 0
        inSlope: 0
        outSlope: 0
        tangentMode: 0
      - time: .883333147
        value: 0
        inSlope: 0
        outSlope: 0
        tangentMode: 0
      - time: .899999976
        value: 0
        inSlope: 0
        outSlope: 0
        tangentMode: 0
      m_PreInfinity: 2
      m_PostInfinity: 2
    attribute: m_LocalRotation.y
    path: 
    classID: 224
    script: {fileID: 0}
  - curve:
      serializedVersion: 2
      m_Curve:
      - time: 0
        value: .0116934413
        inSlope: -.141363591
        outSlope: -.141363591
        tangentMode: 0
      - time: .0166666675
        value: .00933738146
        inSlope: -.147066176
        outSlope: -.147066176
        tangentMode: 0
      - time: .0333333351
        value: .00679123495
        inSlope: -.156027883
        outSlope: -.156027883
        tangentMode: 0
      - time: .0500000045
        value: .00413645105
        inSlope: -.160102338
        outSlope: -.160102338
        tangentMode: 0
      - time: .0666666701
        value: .00145449035
        inSlope: -.159289092
        outSlope: -.159289092
        tangentMode: 0
      - time: .0833333358
        value: -.00117318472
        inSlope: -.153587997
        outSlope: -.153587997
        tangentMode: 0
      - time: .100000001
        value: -.0036651094
        inSlope: -.142999291
        outSlope: -.142999291
        tangentMode: 0
      - time: .116666667
        value: -.0059398273
        inSlope: -.127523422
        outSlope: -.127523422
        tangentMode: 0
      - time: .13333334
        value: -.00791589078
        inSlope: -.107160993
        outSlope: -.107160993
        tangentMode: 0
      - time: .150000006
        value: -.00951186102
        inSlope: -.0819125473
        outSlope: -.0819125473
        tangentMode: 0
      - time: .166666672
        value: -.0106463088
        inSlope: -.0569351986
        outSlope: -.0569351986
        tangentMode: 0
      - time: .183333337
        value: -.0114097008
        inSlope: -.0392442122
        outSlope: -.0392442122
        tangentMode: 0
      - time: .200000003
        value: -.0119544491
        inSlope: -.0264701918
        outSlope: -.0264701918
        tangentMode: 0
      - time: .216666669
        value: -.0122920405
        inSlope: -.0143853035
        outSlope: -.0143853035
        tangentMode: 0
      - time: .233333334
        value: -.0124339592
        inSlope: -.00298949005
        outSlope: -.00298949005
        tangentMode: 0
      - time: .25
        value: -.0123916902
        inSlope: .00771721266
        outSlope: .00771721266
        tangentMode: 0
      - time: .266666681
        value: -.0121767186
        inSlope: .0177349467
        outSlope: .0177349467
        tangentMode: 0
      - time: .283333361
        value: -.0118005248
        inSlope: .0270637739
        outSlope: .0270637739
        tangentMode: 0
      - time: .300000042
        value: -.011274592
        inSlope: .0357037783
        outSlope: .0357037783
        tangentMode: 0
      - time: .316666722
        value: -.0106103979
        inSlope: .0436548963
        outSlope: .0436548963
        tangentMode: 0
      - time: .333333403
        value: -.00981942751
        inSlope: .0509171113
        outSlope: .0509171113
        tangentMode: 0
      - time: .350000083
        value: -.00891315937
        inSlope: .0574904457
        outSlope: .0574904457
        tangentMode: 0
      - time: .366666764
        value: -.00790307764
        inSlope: .0633748472
        outSlope: .0633748472
        tangentMode: 0
      - time: .383333445
        value: -.00680066273
        inSlope: .0685703233
        outSlope: .0685703233
        tangentMode: 0
      - time: .400000125
        value: -.0056173983
        inSlope: .0730766281
        outSlope: .0730766281
        tangentMode: 0
      - time: .416666806
        value: -.00436477317
        inSlope: .0768940225
        outSlope: .0768940225
        tangentMode: 0
      - time: .433333486
        value: -.00305426214
        inSlope: .0800223053
        outSlope: .0800223053
        tangentMode: 0
      - time: .450000167
        value: -.00169736089
        inSlope: .0824613273
        outSlope: .0824613273
        tangentMode: 0
      - time: .466666847
        value: -.000305548863
        inSlope: .0842110217
        outSlope: .0842110217
        tangentMode: 0
      - time: .483333528
        value: .00110967562
        inSlope: .0852715671
        outSlope: .0852715671
        tangentMode: 0
      - time: .500000179
        value: .00253683631
        inSlope: .0856431574
        outSlope: .0856431574
        tangentMode: 0
      - time: .51666683
        value: .00396444462
        inSlope: .0853252932
        outSlope: .0853252932
        tangentMode: 0
      - time: .53333348
        value: .00538101001
        inSlope: .0843181983
        outSlope: .0843181983
        tangentMode: 0
      - time: .550000131
        value: .00677504856
        inSlope: .082621932
        outSlope: .082621932
        tangentMode: 0
      - time: .566666782
        value: .00813507196
        inSlope: .0802365094
        outSlope: .0802365094
        tangentMode: 0
      - time: .583333433
        value: .00944959652
        inSlope: .0771620274
        outSlope: .0771620274
        tangentMode: 0
      - time: .600000083
        value: .0107071372
        inSlope: .0733985305
        outSlope: .0733985305
        tangentMode: 0
      - time: .616666734
        value: .0118962117
        inSlope: .0689460263
        outSlope: .0689460263
        tangentMode: 0
      - time: .633333385
        value: .0130053358
        inSlope: .0638047308
        outSlope: .0638047308
        tangentMode: 0
      - time: .650000036
        value: .0140230339
        inSlope: .057974495
        outSlope: .057974495
        tangentMode: 0
      - time: .666666687
        value: .0149378171
        inSlope: .0514553227
        outSlope: .0514553227
        tangentMode: 0
      - time: .683333337
        value: .0157382097
        inSlope: .0442476347
        outSlope: .0442476347
        tangentMode: 0
      - time: .699999988
        value: .0164127368
        inSlope: .0363511741
        outSlope: .0363511741
        tangentMode: 0
      - time: .716666639
        value: .0169499144
        inSlope: .0277657509
        outSlope: .0277657509
        tangentMode: 0
      - time: .73333329
        value: .017338261
        inSlope: .0184917264
        outSlope: .0184917264
        tangentMode: 0
      - time: .74999994
        value: .0175663047
        inSlope: .00852893014
        outSlope: .00852893014
        tangentMode: 0
      - time: .766666591
        value: .0176225584
        inSlope: -.00212274701
        outSlope: -.00212274701
        tangentMode: 0
      - time: .783333242
        value: .0174955465
        inSlope: -.0134634729
        outSlope: -.0134634729
        tangentMode: 0
      - time: .799999893
        value: .0171737764
        inSlope: -.0254933033
        outSlope: -.0254933033
        tangentMode: 0
      - time: .816666543
        value: .0166457705
        inSlope: -.0382123515
        outSlope: -.0382123515
        tangentMode: 0
      - time: .833333194
        value: .0159000326
        inSlope: -.0516205877
        outSlope: -.0516205877
        tangentMode: 0
      - time: .849999845
        value: .0149250859
        inSlope: -.0657187104
        outSlope: -.0657187104
        tangentMode: 0
      - time: .866666496
        value: .013709411
        inSlope: -.0805063248
        outSlope: -.0805063248
        tangentMode: 0
      - time: .883333147
        value: .0122415442
        inSlope: -.0959836096
        outSlope: -.0959836096
        tangentMode: 0
      - time: .899999976
        value: .0105099417
        inSlope: -.103895135
        outSlope: -.103895135
        tangentMode: 0
      m_PreInfinity: 2
      m_PostInfinity: 2
    attribute: m_LocalRotation.z
    path: 
    classID: 224
    script: {fileID: 0}
  - curve:
      serializedVersion: 2
      m_Curve:
      - time: 0
        value: .999931633
        inSlope: .00148773182
        outSlope: .00148773182
        tangentMode: 0
      - time: .0166666675
        value: .999956429
        inSlope: .00135898578
        outSlope: .00135898578
        tangentMode: 0
      - time: .0333333351
        value: .999976933
        inSlope: .00104963768
        outSlope: .00104963768
        tangentMode: 0
      - time: .0500000045
        value: .999991417
        inSlope: .000659823359
        outSlope: .000659823359
        tangentMode: 0
      - time: .0666666701
        value: .999998927
        inSlope: .000236034408
        outSlope: .000236034408
        tangentMode: 0
      - time: .0833333358
        value: .999999285
        inSlope: -.000169873252
        outSlope: -.000169873252
        tangentMode: 0
      - time: .100000001
        value: .999993265
        inSlope: -.000507831632
        outSlope: -.000507831632
        tangentMode: 0
      - time: .116666667
        value: .999982357
        inSlope: -.000738501432
        outSlope: -.000738501432
        tangentMode: 0
      - time: .13333334
        value: .999968648
        inSlope: -.0008279084
        outSlope: -.0008279084
        tangentMode: 0
      - time: .150000006
        value: .99995476
        inSlope: -.000759959279
        outSlope: -.000759959279
        tangentMode: 0
      - time: .166666672
        value: .999943316
        inSlope: -.00059545046
        outSlope: -.00059545046
        tangentMode: 0
      - time: .183333337
        value: .999934912
        inSlope: -.000443458615
        outSlope: -.000443458615
        tangentMode: 0
      - time: .200000003
        value: .999928534
        inSlope: -.000314712554
        outSlope: -.000314712554
        tangentMode: 0
      - time: .216666669
        value: .999924421
        inSlope: -.00017523767
        outSlope: -.00017523767
        tangentMode: 0
      - time: .233333334
        value: .999922693
        inSlope: -3.57627869e-05
        outSlope: -3.57627869e-05
        tangentMode: 0
      - time: .25
        value: .999923229
        inSlope: 9.47713197e-05
        outSlope: 9.47713197e-05
        tangentMode: 0
      - time: .266666681
        value: .999925852
        inSlope: .000214576547
        outSlope: .000214576547
        tangentMode: 0
      - time: .283333361
        value: .999930382
        inSlope: .000318288541
        outSlope: .000318288541
        tangentMode: 0
      - time: .300000042
        value: .999936461
        inSlope: .000400542864
        outSlope: .000400542864
        tangentMode: 0
      - time: .316666722
        value: .999943733
        inSlope: .000459551404
        outSlope: .000459551404
        tangentMode: 0
      - time: .333333403
        value: .99995178
        inSlope: .00049710233
        outSlope: .00049710233
        tangentMode: 0
      - time: .350000083
        value: .999960303
        inSlope: .000509619305
        outSlope: .000509619305
        tangentMode: 0
      - time: .366666764
        value: .999968767
        inSlope: .00049710233
        outSlope: .00049710233
        tangentMode: 0
      - time: .383333445
        value: .999976873
        inSlope: .000463127682
        outSlope: .000463127682
        tangentMode: 0
      - time: .400000125
        value: .999984205
        inSlope: .000407695421
        outSlope: .000407695421
        tangentMode: 0
      - time: .416666806
        value: .999990463
        inSlope: .000334381766
        outSlope: .000334381766
        tangentMode: 0
      - time: .433333486
        value: .999995351
        inSlope: .000243186747
        outSlope: .000243186747
        tangentMode: 0
      - time: .450000167
        value: .999998569
        inSlope: .000137686613
        outSlope: .000137686613
        tangentMode: 0
      - time: .466666847
        value: .99999994
        inSlope: 2.50339308e-05
        outSlope: 2.50339308e-05
        tangentMode: 0
      - time: .483333528
        value: .999999404
        inSlope: -9.47714434e-05
        outSlope: -9.47714434e-05
        tangentMode: 0
      - time: .500000179
        value: .999996781
        inSlope: -.000218153204
        outSlope: -.000218153204
        tangentMode: 0
      - time: .51666683
        value: .999992132
        inSlope: -.000337958656
        outSlope: -.000337958656
        tangentMode: 0
      - time: .53333348
        value: .999985516
        inSlope: -.000452399661
        outSlope: -.000452399661
        tangentMode: 0
      - time: .550000131
        value: .999977052
        inSlope: -.000557899999
        outSlope: -.000557899999
        tangentMode: 0
      - time: .566666782
        value: .999966919
        inSlope: -.000650883303
        outSlope: -.000650883303
        tangentMode: 0
      - time: .583333433
        value: .999955356
        inSlope: -.000727773411
        outSlope: -.000727773411
        tangentMode: 0
      - time: .600000083
        value: .99994266
        inSlope: -.000783205731
        outSlope: -.000783205731
        tangentMode: 0
      - time: .616666734
        value: .999929249
        inSlope: -.000817180495
        outSlope: -.000817180495
        tangentMode: 0
      - time: .633333385
        value: .999915421
        inSlope: -.000827909331
        outSlope: -.000827909331
        tangentMode: 0
      - time: .650000036
        value: .999901652
        inSlope: -.000810027937
        outSlope: -.000810027937
        tangentMode: 0
      - time: .666666687
        value: .99988842
        inSlope: -.000765324337
        outSlope: -.000765324337
        tangentMode: 0
      - time: .683333337
        value: .999876142
        inSlope: -.000693798764
        outSlope: -.000693798764
        tangentMode: 0
      - time: .699999988
        value: .999865294
        inSlope: -.000593662844
        outSlope: -.000593662844
        tangentMode: 0
      - time: .716666639
        value: .999856353
        inSlope: -.000468492974
        outSlope: -.000468492974
        tangentMode: 0
      - time: .73333329
        value: .999849677
        inSlope: -.000320077233
        outSlope: -.000320077233
        tangentMode: 0
      - time: .74999994
        value: .999845684
        inSlope: -.000148415711
        outSlope: -.000148415711
        tangentMode: 0
      - time: .766666591
        value: .99984473
        inSlope: 3.75509626e-05
        outSlope: 3.75509626e-05
        tangentMode: 0
      - time: .783333242
        value: .999846935
        inSlope: .000234246487
        outSlope: .000234246487
        tangentMode: 0
      - time: .799999893
        value: .999852538
        inSlope: .000436306407
        outSlope: .000436306407
        tangentMode: 0
      - time: .816666543
        value: .999861479
        inSlope: .00063121377
        outSlope: .00063121377
        tangentMode: 0
      - time: .833333194
        value: .999873579
        inSlope: .000813604216
        outSlope: .000813604216
        tangentMode: 0
      - time: .849999845
        value: .999888599
        inSlope: .000972748734
        outSlope: .000972748734
        tangentMode: 0
      - time: .866666496
        value: .999906003
        inSlope: .00109434233
        outSlope: .00109434233
        tangentMode: 0
      - time: .883333147
        value: .999925077
        inSlope: .00116228533
        outSlope: .00116228533
        tangentMode: 0
      - time: .899999976
        value: .999944746
        inSlope: .00118016044
        outSlope: .00118016044
        tangentMode: 0
      m_PreInfinity: 2
      m_PostInfinity: 2
    attribute: m_LocalRotation.w
    path: 
    classID: 224
    script: {fileID: 0}
  m_EulerEditorCurves:
  - curve:
      serializedVersion: 2
      m_Curve:
      - time: 0
        value: 0
        inSlope: 0
        outSlope: 0
        tangentMode: 10
      - time: .166666672
        value: 0
        inSlope: 0
        outSlope: 0
        tangentMode: 10
      - time: .899999976
        value: 0
        inSlope: 0
        outSlope: 0
        tangentMode: 10
      m_PreInfinity: 2
      m_PostInfinity: 2
    attribute: localEulerAnglesBaked.x
    path: 
    classID: 224
    script: {fileID: 0}
  - curve:
      serializedVersion: 2
      m_Curve:
      - time: 0
        value: 0
        inSlope: 0
        outSlope: 0
        tangentMode: 10
      - time: .166666672
        value: 0
        inSlope: 0
        outSlope: 0
        tangentMode: 10
      - time: .899999976
        value: 0
        inSlope: 0
        outSlope: 0
        tangentMode: 10
      m_PreInfinity: 2
      m_PostInfinity: 2
    attribute: localEulerAnglesBaked.y
    path: 
    classID: 224
    script: {fileID: 0}
  - curve:
      serializedVersion: 2
      m_Curve:
      - time: 0
        value: 1.34000003
        inSlope: -15.3599997
        outSlope: -15.3599997
        tangentMode: 10
      - time: .166666672
        value: -1.22000003
        inSlope: -6.02701855
        outSlope: -6.02701855
        tangentMode: 10
      - time: .899999976
        value: 1.20437264
        inSlope: -12.8390198
        outSlope: -12.8390198
        tangentMode: 0
      m_PreInfinity: 2
      m_PostInfinity: 2
    attribute: localEulerAnglesBaked.z
    path: 
    classID: 224
    script: {fileID: 0}
  m_HasGenericRootTransform: 1
  m_HasMotionFloatCurves: 0
  m_GenerateMotionCurves: 0
  m_Events: []
